{
   
    "entrypoint": "index.html",
    "shell": "src/index.js",
    "fragments": [
       
    ],
    "sources": [
        "src/index.js",
        "src/util/util-constants.js",
        "src/operations/*",
        "manifest/**",
        "package.json",
        "data/**/*",
        "images/**/*",
        "src/**/*"
    ],
    "extraDependencies": [
        "manifest.json", 
        "node_modules/@webcomponents/webcomponentsjs/**"
    ],
    "builds": [
        { 
          "name": "es5prod",
          "preset": "es5-bundled",
          "addServiceWorker": true
        },
        { 
          "name": "es6prod",
          "preset": "es6-unbundled",
          "addServiceWorker": true
        },
        { 
          "name": "dev",
          "addServiceWorker": false,
          "js": {"minify": false, "compile": false},
          "css": {"minify": false},
          "html": {"minify": false},
          "bundle": false,
          
          "addPushManifest": false
        }
      ],
      "moduleResolution": "node",
      "npm": true
}